{
  "openapi": "3.1.0",
  "info": {
    "title": "Sync_keys_ext",
    "version": "1.0",
    "summary": "API методы управления ключами объектов обмена",
    "description": "Набор методов по управлению ключами объектов обмена"
  },
  "servers": [
    {
      "url": "http://localhost"
    }
  ],
  "paths": {
    "/{system}/{type}/keys/global/{key}": {
      "parameters": [
        {
          "schema": {
            "type": "string"
          },
          "name": "system",
          "in": "path",
          "required": true,
          "description": "Идентификатор системы учета"
        },
        {
          "schema": {
            "type": "string"
          },
          "name": "type",
          "in": "path",
          "required": true,
          "description": "Вид объекта обмена"
        },
        {
          "schema": {
            "type": "string"
          },
          "name": "key",
          "in": "path",
          "required": true,
          "description": "Глобальный ключ объекта обмена"
        }
      ],
      "put": {
        "summary": "Локальный ключ - Добавить",
        "operationId": "put-local-key",
        "responses": {
          "200": {
            "description": "OK"
          }
        },
        "requestBody": {
          "content": {
            "application/json": {
              "schema": {
                "type": "string"
              },
              "examples": {
                "1234567890": {
                  "value": "string"
                }
              }
            }
          },
          "description": "Локальный ключ"
        },
        "description": "Добавляет локальный ключ в привязке к глобальному ключу"
      },
      "get": {
        "summary": "Локальный ключ - Получить",
        "operationId": "get-local-key",
        "responses": {
          "200": {
            "description": "Локальный ключ, если ключа нет то null"
          }
        },
        "description": "Возвращает локальный ключ объекта обмена по глобальному ключу"
      },
      "delete": {
        "summary": "Локальный ключ - Удалить",
        "operationId": "delete-local-key",
        "responses": {
          "200": {
            "description": "OK"
          }
        },
        "description": "Удаляет привязку глобального ключа к локальному"
      }
    },
    "/{system}/{type}/keys/local/{key}": {
      "get": {
        "summary": "Глобальный ключ - Получить",
        "tags": [],
        "responses": {
          "200": {
            "description": "Глобальный ключ, если ключа нет то null"
          }
        },
        "operationId": "get-global-key",
        "description": "Возвращает глобальный ключ объекта обмена по локальному ключу"
      },
      "parameters": [
        {
          "schema": {
            "type": "string"
          },
          "name": "system",
          "in": "path",
          "required": true,
          "description": "Идентификатор системы учета"
        },
        {
          "schema": {
            "type": "string"
          },
          "name": "type",
          "in": "path",
          "required": true,
          "description": "Вид объекта обмена"
        },
        {
          "schema": {
            "type": "string"
          },
          "name": "key",
          "in": "path",
          "required": true,
          "description": "Локальный ключ объекта обмена"
        }
      ],
      "put": {
        "summary": "Глобальный ключ - Добавить",
        "operationId": "put-global-key",
        "responses": {
          "200": {
            "description": "OK"
          }
        },
        "description": "Добавляет глобальный ключ в привязке к локальному ключу",
        "requestBody": {
          "content": {
            "application/json": {
              "schema": {
                "type": "string"
              },
              "examples": {
                "5d5d0827-d7fa-4790-97e9-2fa3c8d2ef2e": {
                  "value": "string"
                }
              }
            }
          },
          "description": "Глобальный ключ"
        }
      },
      "delete": {
        "summary": "Глобальный ключ - Удалить",
        "operationId": "delete-global-key",
        "responses": {
          "200": {
            "description": "OK"
          }
        },
        "description": "Удаляет привязку локального ключа к глобальному"
      }
    }
  },
  "components": {
    "schemas": {},
    "responses": {}
  }
}